Division,WeightClassKg,Place,Name,Team,BodyweightKg,Best3SquatKg,Best3BenchKg,Best3DeadliftKg,TotalKg,Equipment,Event,Sex,BirthDate
Boys,51.71,1,Ivan Gonzales,Mathis,51.44,106.59,70.31,136.08,312.98,Single-ply,SBD,M,
Boys,51.71,2,Austin Maldonado,Falfurrias,50.35,102.06,61.23,120.2,283.5,Single-ply,SBD,M,
Boys,51.71,3,Joshua Gonzales,Mathis,50.35,54.43,52.16,72.57,179.17,Single-ply,SBD,M,
Boys,55.79,1,Trey Wright,Mathis,54.88,124.74,77.11,158.76,360.61,Single-ply,SBD,M,
Boys,55.79,2,Justin Livas,Goliad,54.88,117.93,58.97,111.13,288.03,Single-ply,SBD,M,
Boys,59.87,1,Robert Rios,Mathis,59.56,197.31,124.74,219.99,542.04,Single-ply,SBD,M,
Boys,59.87,2,Joseph Espinoza,Taft,59.42,170.1,120.2,183.7,474,Single-ply,SBD,M,
Boys,59.87,3,Joseph Riveria,Mathis,58.97,127.01,90.72,170.1,387.82,Single-ply,SBD,M,
Boys,59.87,4,James Adams,Odem,59.42,129.27,97.52,147.42,374.21,Single-ply,SBD,M,
Boys,59.87,5,Justin Edison,Goliad,58.06,122.47,81.65,133.81,337.93,Single-ply,SBD,M,
Boys,59.87,DQ,Morris Brown,Kenedy,59.42,,72.57,108.86,,Single-ply,SBD,M,
Boys,59.87,DQ,Vicente Esquivel,Skidmore-Tynan,58.06,129.27,,,,Single-ply,SBD,M,
Boys,67.13,1,Elijah Ybarra,Mathis,66.5,213.19,149.69,208.65,571.53,Single-ply,SBD,M,
Boys,67.13,2,Jerek Sanchez,Taft,62.6,213.19,147.42,208.65,569.26,Single-ply,SBD,M,
Boys,67.13,3,Mark Moreno,Odem,64.59,158.76,95.25,183.7,437.72,Single-ply,SBD,M,
Boys,67.13,4,Geronimo Torres,Mathis,65.77,113.4,74.84,149.69,337.93,Single-ply,SBD,M,
Boys,67.13,5,Nicolas Kyle,Skidmore-Tynan,65.77,127.01,61.23,142.88,331.12,Single-ply,SBD,M,
Boys,67.13,DQ,Delfino Villarreal,Mathis,66.81,68.04,,,,Single-ply,SBD,M,
Boys,67.13,DQ,Brian Leal,Kenedy,62.6,133.81,,147.42,,Single-ply,SBD,M,
Boys,67.13,DQ,Elyon Ybarra,Mathis,65.27,172.37,,,,Single-ply,SBD,M,
Boys,74.84,1,Anthony Garcia,Mathis,74.57,226.8,149.69,226.8,603.28,Single-ply,SBD,M,
Boys,74.84,2,Zedrick Deleon,Mathis,73.94,183.7,111.13,174.63,469.47,Single-ply,SBD,M,
Boys,74.84,3,Aden Barrientez,Goliad,71.67,163.29,102.06,165.56,430.91,Single-ply,SBD,M,
Boys,74.84,4,Ethan Ybarra,Mathis,73.94,142.88,113.4,165.56,421.84,Single-ply,SBD,M,
Boys,74.84,5,John Espinoza,Odem,73.94,158.76,90.72,165.56,415.04,Single-ply,SBD,M,
Boys,74.84,6,Kia McDow,Goliad,71.21,136.08,83.91,140.61,360.61,Single-ply,SBD,M,
Boys,74.84,7,Alexis Barrera,Goliad,71.67,145.15,70.31,142.88,358.34,Single-ply,SBD,M,
Boys,74.84,8,Alfredo Gomez,Taft,74.39,124.74,83.91,120.2,328.85,Single-ply,SBD,M,
Boys,82.1,1,Kristopher Laughlin,Skidmore-Tynan,79.38,170.1,133.81,195.04,498.95,Single-ply,SBD,M,
Boys,82.1,2,Joe Guerra,Skidmore-Tynan,81.19,167.83,120.2,174.63,462.66,Single-ply,SBD,M,
Boys,82.1,3,Alex Beltran,Odem,78.93,149.69,92.99,149.69,392.36,Single-ply,SBD,M,
Boys,82.1,4,Rene Martinez,Falfurrias,81.65,102.06,92.99,147.42,342.46,Single-ply,SBD,M,
Boys,82.1,5,Marcello Nieto,Taft,81.65,102.06,79.38,142.88,324.32,Single-ply,SBD,M,
Boys,82.1,DQ,Joseph Zapata,Falfurrias,80.29,174.63,,190.51,,Single-ply,SBD,M,
Boys,82.1,DQ,Patrick Seguria,Kenedy,80.29,131.54,,147.42,,Single-ply,SBD,M,
Boys,89.81,1,Derrick Deleon,Mathis,88.45,317.51,190.51,272.16,780.18,Single-ply,SBD,M,
Boys,89.81,2,Ceasar Gonzales,Mathis,89.49,142.88,113.4,165.56,421.84,Single-ply,SBD,M,
Boys,89.81,3,Michael Gonzales,Mathis,89.54,136.08,108.86,149.69,394.63,Single-ply,SBD,M,
Boys,89.81,4,Daniel Lopez #11,Odem,84.82,113.4,61.23,124.74,299.37,Single-ply,SBD,M,
Boys,99.79,1,Clayton Klekar,Goliad,98.88,240.4,142.88,247.21,630.49,Single-ply,SBD,M,
Boys,99.79,2,Landon Garza,Odem,91.17,210.92,117.93,199.58,528.44,Single-ply,SBD,M,
Boys,99.79,3,Nando Vargas,Kenedy,94.8,210.92,106.59,201.85,519.36,Single-ply,SBD,M,
Boys,99.79,4,Nicholas Gutierrez,Mathis,99.34,195.04,124.74,195.04,514.83,Single-ply,SBD,M,
Boys,99.79,5,Sergio Garza,Falfurrias,93.89,120.2,88.45,142.88,351.53,Single-ply,SBD,M,
Boys,99.79,DQ,Brandon Beltran,Odem,94.8,,,,,Single-ply,SBD,M,
Boys,99.79,DQ,Michael Longoria #2,Falfurrias,95.25,124.74,88.45,,,Single-ply,SBD,M,
Boys,109.77,1,Kade Bednorz,Goliad,108.86,201.85,142.88,176.9,521.63,Single-ply,SBD,M,
Boys,109.77,2,Aaron Mireles,Falfurrias,101.6,174.63,102.06,165.56,442.25,Single-ply,SBD,M,
Boys,109.77,3,James Garza,Falfurrias,107.05,142.88,102.06,183.7,428.64,Single-ply,SBD,M,
Boys,109.77,4,Thomas Vela,Falfurrias,105.69,102.06,56.7,124.74,283.5,Single-ply,SBD,M,
Boys,109.77,DQ,Daniel Tamez,Odem,106.14,,,,,Single-ply,SBD,M,
Boys,124.74,1,Leverius Gage,Goliad,122.92,278.96,147.42,222.26,648.64,Single-ply,SBD,M,
Boys,124.74,2,John Cuevas #2,Skidmore-Tynan,115.21,242.67,163.29,215.46,621.42,Single-ply,SBD,M,
Boys,124.74,3,Joseph Luna,Kenedy,122.02,238.14,131.54,238.14,607.81,Single-ply,SBD,M,
Boys,124.74,4,Zackary Guerra,Goliad,114.31,226.8,129.27,192.78,548.85,Single-ply,SBD,M,
Boys,124.74,5,Ryland Reyna,Kenedy,111.13,204.12,124.74,204.12,532.97,Single-ply,SBD,M,
Boys,124.74,6,Peyton Rasbury,Mathis,118.84,204.12,145.15,174.63,523.9,Single-ply,SBD,M,
Boys,124.74,7,Robert De Leon,Kenedy,110.68,190.51,127.01,183.7,501.22,Single-ply,SBD,M,
Boys,124.74,8,Juanito Cabrera,Falfurrias,113.85,204.12,106.59,183.7,494.42,Single-ply,SBD,M,
Boys,124.74,9,Omar Carbajal,Falfurrias,121.56,165.56,83.91,165.56,415.04,Single-ply,SBD,M,
Boys,124.74,DQ,Moses Saucedo,Mathis,119.75,215.46,113.4,,,Single-ply,SBD,M,
Boys,124.74,DQ,Nico Chavira,Odem,113.85,249.48,154.22,,,Single-ply,SBD,M,
Boys,139.71,1,Walker Wimberly,Goliad,137.89,210.92,133.81,199.58,544.31,Single-ply,SBD,M,
Boys,139.71,DQ,Brandon Montez,Taft,128.37,163.29,,,,Single-ply,SBD,M,
Boys,139.71+,1,Bryon Lewis,Goliad,155.13,90.72,70.31,122.47,283.5,Single-ply,SBD,M,
