Name,WeightClassKg,Division,AgeRange,Best3SquatKg,Best3BenchKg,Best3DeadliftKg,TotalKg,Event,Equipment,Sex,Place
Sheldon Weingust,67.5,Open,,,150,,150,B,Single-ply,M,1
G. Gutierrez,75,Open,,,187.5,,187.5,B,Single-ply,M,1
Donald Madere,82.5,Open,,,187.5,,187.5,B,Single-ply,M,1
A. Vogel,82.5,Open,,,180,,180,B,Single-ply,M,2
V. Viola,82.5,Open,,,142.5,,142.5,B,Single-ply,M,3
J. Haile,90,Open,,,192.5,,192.5,B,Single-ply,M,1
C. Goode,90,Open,,,177.5,,177.5,B,Single-ply,M,2
Hugh Creech,90,Open,,,170,,170,B,Single-ply,M,3
E. Molina Jr,90,Open,,,147.5,,147.5,B,Single-ply,M,4
M. Lozano,100,Open,,,215,,215,B,Single-ply,M,1
P. Pernell,100,Open,,,205,,205,B,Single-ply,M,2
J. Fagans,100,Open,,,115,,115,B,Single-ply,M,3
Steve Foster,110,Open,,,227.5,,227.5,B,Single-ply,M,1
J. Holt,110,Open,,,190,,190,B,Single-ply,M,2
M. Etheridge,110,Open,,,140,,140,B,Single-ply,M,3
John Stewart,125,Open,,,250,,250,B,Single-ply,M,1
A. Sultzer,125,Open,,,187.5,,187.5,B,Single-ply,M,2
E. Leadbetter,125,Open,,,182.5,,182.5,B,Single-ply,M,3
E. Prieto,125,Open,,,167.5,,167.5,B,Single-ply,M,4
M. Joyce,125,Open,,,137.5,,137.5,B,Single-ply,M,5
R. Grant,125,Open,,,,,,B,Single-ply,M,DQ
Tiny Meeker,125+,Open,,,255,,255,B,Single-ply,M,1
Stephen Woelk,125+,Open,,,240,,240,B,Single-ply,M,2
T. McKinne,125+,Open,,,220,,220,B,Single-ply,M,3
Sheldon Weingust,67.5,Masters 40+,40-999,,150,,150,B,Single-ply,M,1
T. Engle,75,Masters 40+,40-999,,137.5,,137.5,B,Single-ply,M,1
P. Lewis,82.5,Masters 40+,40-999,,102.5,,102.5,B,Single-ply,M,1
B. Pare,90,Masters 40+,40-999,,105,,105,B,Single-ply,M,2
D. Wimberley,90,Masters 40+,40-999,,187.5,,187.5,B,Single-ply,M,1
K. Konsysdhi,100,Masters 40+,40-999,,185,,185,B,Single-ply,M,1
Charles Turco,100,Masters 40+,40-999,,170,,170,B,Single-ply,M,2
Steve Foster,110,Masters 40+,40-999,,227.5,,227.5,B,Single-ply,M,1
Daniel de Los Santos,110,Masters 40+,40-999,,170,,170,B,Single-ply,M,2
E. Smith,110,Masters 40+,40-999,,150,,150,B,Single-ply,M,3
Ernie Surrell,125+,Masters 40+,40-999,,180,,180,B,Single-ply,M,1
Homer de la Rosa,125+,Masters 40+,40-999,,175,,175,B,Single-ply,M,2
Joseph Yu,75,Submasters 35-39,35-39,,165,,165,B,Single-ply,M,1
J. Campbell,82.5,Submasters 35-39,35-39,,162.5,,162.5,B,Single-ply,M,1
Ed Wilkinson,90,Submasters 35-39,35-39,,217.5,,217.5,B,Single-ply,M,1
J. Haile,90,Submasters 35-39,35-39,,192.5,,192.5,B,Single-ply,M,2
B. Hurt,90,Submasters 35-39,35-39,,155,,155,B,Single-ply,M,3
T. Garcia,100,Submasters 35-39,35-39,,205,,205,B,Single-ply,M,1
Steve Hambright,100,Submasters 35-39,35-39,,,,,B,Single-ply,M,DQ
K. Carter,110,Submasters 35-39,35-39,,195,,195,B,Single-ply,M,1
John Stewart,125,Submasters 35-39,35-39,,250,,250,B,Single-ply,M,1
T. McKinne,125+,Submasters 35-39,35-39,,220,,220,B,Single-ply,M,1
D. Lewis #2,52,Teen,13-19,,37.5,,37.5,B,Single-ply,M,1
D. Badalich,90,Teen,13-19,,172.5,,172.5,B,Single-ply,M,1
M. Etheridge,110,Teen,13-19,,140,,140,B,Single-ply,M,1
C. Chovanec,125+,Teen,13-19,,140,,140,B,Single-ply,M,1
Susan Rinn,52,Open,,,92.5,,92.5,B,Single-ply,F,1
B. Goupil,67.5,Open,,,77.5,,77.5,B,Single-ply,F,1
J. Carter,67.5,Open,,,62.5,,62.5,B,Single-ply,F,2
Shary Barbee,82.5,Open,,,75,,75,B,Single-ply,F,1
G. DeLeon,60,Class I,,182.5,110,165,457.5,SBD,Single-ply,M,1
Brian Bartsch,75,Class I,,222.5,152.5,227.5,602.5,SBD,Single-ply,M,2
J. Doop,75,Class I,,215,160,210,585,SBD,Single-ply,M,3
K. Jones,75,Class I,,195,137.5,202.5,535,SBD,Single-ply,M,4
A. Ellis,75,Class I,,162.5,117.5,215.5,495.5,SBD,Single-ply,M,5
H. Adame,75,Class I,,152.5,105,185,442.5,SBD,Single-ply,M,6
R. Guevara,75,Class I,,147.5,120,167.5,435,SBD,Single-ply,M,7
B. Rieger,75,Class I,,170,127.5,,,SBD,Single-ply,M,DQ
B. Howser,75,Class I,,232.5,157.5,237.5,627.5,SBD,Single-ply,M,1
J. Jimenez,82.5,Class I,,185,147.5,230,562.5,SBD,Single-ply,M,2
J. Thaxton,82.5,Class I,,195,120,240,555,SBD,Single-ply,M,3
M. Pearce,82.5,Class I,,205,140,197.5,542.5,SBD,Single-ply,M,4
A. Ortiz,82.5,Class I,,185,117.5,240,542.5,SBD,Single-ply,M,5
S. Devine,82.5,Class I,,197.5,125,212.5,535,SBD,Single-ply,M,6
D. Woodlan,82.5,Class I,,182.5,130,187.5,500,SBD,Single-ply,M,7
E. Crow,82.5,Class I,,250,162.5,280,692.5,SBD,Single-ply,M,1
A. Nowak,90,Class I,,245,172.5,265,682.5,SBD,Single-ply,M,1
F. Burch,90,Class I,,262.5,162.5,240,665,SBD,Single-ply,M,2
L. Koentopp,90,Class I,,230,155,237.5,622.5,SBD,Single-ply,M,3
B. Hurt,90,Class I,,227.5,122.5,250,600,SBD,Single-ply,M,4
B. Moore #1,90,Class I,,227.5,147.5,212.5,587.5,SBD,Single-ply,M,5
M. Dugan,90,Class I,,205,157.5,217.5,580,SBD,Single-ply,M,6
T. Bueno,90,Class I,,145,142.5,215,502.5,SBD,Single-ply,M,7
G. Castro,90,Class I,,,,,,SBD,Single-ply,M,DQ
D. Wendell,90,Class I,,,,,,SBD,Single-ply,M,DQ
D. King,90,Class I,,,,,,SBD,Single-ply,M,DQ
M. Davis,90,Class I,,,,,,SBD,Single-ply,M,DQ
C. Bridgford,100,Class I,,247.5,187.5,245,680,SBD,Single-ply,M,1
D. Boseman,100,Class I,,250,157.5,252.5,660,SBD,Single-ply,M,2
B. Loveless,100,Class I,,227.5,170,250,647.5,SBD,Single-ply,M,3
J. Fowler,100,Class I,,215,125,250,590,SBD,Single-ply,M,4
J. McNeal,100,Class I,,185,137.5,200,522.5,SBD,Single-ply,M,5
M. Candia,100,Class I,,170,122.5,182.5,475,SBD,Single-ply,M,6
C. Bodman,100,Class I,,,,,,SBD,Single-ply,M,DQ
J. Williamson,100,Class I,,,,,,SBD,Single-ply,M,DQ
Darian Tatum,110,Class I,,295,210,295,800,SBD,Single-ply,M,1
S. Weaver,110,Class I,,240,165,257.5,662.5,SBD,Single-ply,M,2
B. Moore #2,110,Class I,,222.5,162.5,272.5,657.5,SBD,Single-ply,M,3
David Hartman,125,Class I,,275,197.5,255,727.5,SBD,Single-ply,M,1
J. Nicholosi,125,Class I,,230,160,215,605,SBD,Single-ply,M,2
S. Smith #1,125,Class I,,202.5,147.5,245,595,SBD,Single-ply,M,3
D. Hurt,125+,Class I,,310,165,277.5,752.5,SBD,Single-ply,M,1
Tiny Meeker,125+,Class I,,112.5,255,112.5,480,SBD,Single-ply,M,2
K. James,67.5,Masters 40-49,40-49,182.5,132.5,205,520,SBD,Single-ply,M,1
C. Daniel,67.5,Masters 40-49,40-49,157.5,112.5,200,470,SBD,Single-ply,M,2
G. Maluding,67.5,Masters 40-49,40-49,,,,,SBD,Single-ply,M,DQ
M. Hardin,82.5,Masters 40-49,40-49,182.5,125,255,562.5,SBD,Single-ply,M,1
S. Tighe,82.5,Masters 40-49,40-49,195,120,217.5,532.5,SBD,Single-ply,M,2
Mike Dobrovolski,82.5,Masters 40-49,40-49,195,112.5,220,527.5,SBD,Single-ply,M,3
P. Lewis,82.5,Masters 40-49,40-49,147.5,102.5,185,435,SBD,Single-ply,M,4
Paul Boutte Sr,90,Masters 40-49,40-49,247.5,147.5,245,640,SBD,Single-ply,M,1
C. Efard,90,Masters 40-49,40-49,137.5,92.5,167.5,397.5,SBD,Single-ply,M,2
D. Wimberley,90,Masters 40-49,40-49,60,187.5,60,307.5,SBD,Single-ply,M,3
B. Wright,100,Masters 40-49,40-49,210,177.5,230,617.5,SBD,Single-ply,M,1
Gabriel Moreno #1,100,Masters 40-49,40-49,,,,,SBD,Single-ply,M,DQ
R. Roy,110,Masters 40-49,40-49,262.5,177.5,245,685,SBD,Single-ply,M,1
L. Benavides,110,Masters 40-49,40-49,250,157.5,212.5,620,SBD,Single-ply,M,2
C. Bodin,75,Masters 50+,50-999,142.5,112.5,152.5,407.5,SBD,Single-ply,M,1
Art Menton,82.5,Masters 50+,50-999,225,140,222.5,587.5,SBD,Single-ply,M,1
D. West,82.5,Masters 50+,50-999,,,,,SBD,Single-ply,M,DQ
H. Chandler,90,Masters 50+,50-999,187.5,150,200,537.5,SBD,Single-ply,M,1
D. Childers,90,Masters 50+,50-999,137.5,105,177.5,420,SBD,Single-ply,M,2
E. Smith,125+,Masters 50+,50-999,265,150,250,665,SBD,Single-ply,M,1
B. Johnson,125+,Masters 50+,50-999,245,110,232.5,587.5,SBD,Single-ply,M,2
H. Bodden,125+,Masters 50+,50-999,172.5,160,200,532.5,SBD,Single-ply,M,3
C. Wahl,125+,Masters 50+,50-999,142.5,100,170,412.5,SBD,Single-ply,M,4
M. Vasquez,60,Open,,182.5,92.5,192.5,467.5,SBD,Single-ply,M,1
John Barfield,67.5,Open,,192.5,137.5,230,560,SBD,Single-ply,M,1
S. Gallegos,67.5,Open,,197.5,137.5,205,540,SBD,Single-ply,M,2
Michael Duhon,67.5,Open,,185,122.5,215,522.5,SBD,Single-ply,M,3
J. Vasquez,67.5,Open,,,,,,SBD,Single-ply,M,DQ
Rusty Ellis,75,Open,,252.5,142.5,270,665,SBD,Single-ply,M,1
M. McCracken,75,Open,,200,177.5,240,617.5,SBD,Single-ply,M,2
Tim Riffe,75,Open,,217.5,137.5,250,605,SBD,Single-ply,M,3
J. Bowman III,75,Open,,202.5,140,227.5,570,SBD,Single-ply,M,4
Pete Wainscott,82.5,Open,,242.5,172.5,247.5,662.5,SBD,Single-ply,M,1
B. Cowey,82.5,Open,,250,170,230,650,SBD,Single-ply,M,2
J. Sellars,82.5,Open,,227.5,145,227.5,600,SBD,Single-ply,M,3
M. Hardin,82.5,Open,,182.5,125,255,562.5,SBD,Single-ply,M,4
J. Puleri,82.5,Open,,200,142.5,217.5,560,SBD,Single-ply,M,5
B. Shaw,90,Open,,297.5,182.5,292.5,772.5,SBD,Single-ply,M,1
A. Nowak,90,Open,,250,162.5,280,692.5,SBD,Single-ply,M,2
C. Goode,90,Open,,265,177.5,247.5,690,SBD,Single-ply,M,3
Hugh Creech,90,Open,,250,170,240,660,SBD,Single-ply,M,4
E. Luna,90,Open,,260,157.5,240,657.5,SBD,Single-ply,M,5
N. Urrea,90,Open,,192.5,135,160,487.5,SBD,Single-ply,M,6
R. Hernandez,90,Open,,,,,,SBD,Single-ply,M,DQ
Bob Hester,100,Open,,325,210,300,835,SBD,Single-ply,M,1
R. Garganta,100,Open,,275,182.5,277.5,735,SBD,Single-ply,M,2
M. Lozano,100,Open,,227.5,215,187.5,630,SBD,Single-ply,M,3
Tim Bruner,110,Open,,341,215,327.5,883.5,SBD,Single-ply,M,1
Mark Blankley,110,Open,,292.5,235,305,832.5,SBD,Single-ply,M,2
Lee Neef,110,Open,,272.5,187.5,275,735,SBD,Single-ply,M,3
Andy Kuehne,110,Open,,275,170,282.5,727.5,SBD,Single-ply,M,4
J. King,110,Open,,267.5,167.5,272.5,707.5,SBD,Single-ply,M,5
J. Holt,110,Open,,260,190,252.5,702.5,SBD,Single-ply,M,6
R. Norris,110,Open,,245,137.5,290,672.5,SBD,Single-ply,M,7
Collin Rhodes #1,125,Open,,312.5,240,317.5,870,SBD,Single-ply,M,1
A. Sultzer,125,Open,,285,187.5,252.5,725,SBD,Single-ply,M,2
Fred Lopez,125+,Open,,320,242.5,295,857.5,SBD,Single-ply,M,1
S. Bell #4,125+,Open,,,,,,SBD,Single-ply,M,DQ
Michael Duhon,67.5,Submasters 35-39,35-39,185,122.5,215,522.5,SBD,Single-ply,M,1
Joseph Yu,75,Submasters 35-39,35-39,220,165,205,590,SBD,Single-ply,M,1
T. Smith,75,Submasters 35-39,35-39,182.5,145,235,562.5,SBD,Single-ply,M,2
T. May,75,Submasters 35-39,35-39,182.5,112.5,205,500,SBD,Single-ply,M,3
Donald Madere,82.5,Submasters 35-39,35-39,272.5,187.5,240,700,SBD,Single-ply,M,1
Pete Wainscott,82.5,Submasters 35-39,35-39,242.5,172.5,247.5,662.5,SBD,Single-ply,M,2
J. Wood,82.5,Submasters 35-39,35-39,182.5,140,210,532.5,SBD,Single-ply,M,3
E. Garcia,82.5,Submasters 35-39,35-39,150,102.5,200,452.5,SBD,Single-ply,M,4
B. Shaw,90,Submasters 35-39,35-39,297.5,182.5,292.5,772.5,SBD,Single-ply,M,1
J. Vasquez,90,Submasters 35-39,35-39,272.5,177.5,272.5,722.5,SBD,Single-ply,M,2
D. Muntz,90,Submasters 35-39,35-39,237.5,190,242.5,670,SBD,Single-ply,M,3
B. Hurt,90,Submasters 35-39,35-39,230,155,237.5,622.5,SBD,Single-ply,M,4
T. Glawe,90,Submasters 35-39,35-39,225,147.5,247.5,620,SBD,Single-ply,M,5
S. Saxby,90,Submasters 35-39,35-39,162.5,110,192.5,465,SBD,Single-ply,M,6
R. Nesuda,100,Submasters 35-39,35-39,275,170,277.5,722.5,SBD,Single-ply,M,1
Terry Gunn,100,Submasters 35-39,35-39,227.5,152.5,250,630,SBD,Single-ply,M,2
Steve Hambright,100,Submasters 35-39,35-39,,,,,SBD,Single-ply,M,DQ
Tim Bruner,110,Submasters 35-39,35-39,341,215,327.5,883.5,SBD,Single-ply,M,1
R. Norris,110,Submasters 35-39,35-39,245,137.5,290,672.5,SBD,Single-ply,M,2
S. Smith #1,125,Submasters 35-39,35-39,202.5,147.5,245,595,SBD,Single-ply,M,1
C. Zepeda,52,Teen,13-19,137.5,82.5,147.5,367.5,SBD,Single-ply,M,1
D. Lewis #2,52,Teen,13-19,67.5,37.5,97.5,202.5,SBD,Single-ply,M,2
M. Vallejo,75,Teen,13-19,167.5,102.5,182.5,452.5,SBD,Single-ply,M,1
A. Lorenz,82.5,Teen,13-19,275,152.5,255,682.5,SBD,Single-ply,M,1
D. Bustos,82.5,Teen,13-19,,,,,SBD,Single-ply,M,DQ
Z. Stewart,90,Teen,13-19,242.5,65,225,532.5,SBD,Single-ply,M,1
PJ Chovanec,100,Teen,13-19,295,165,282.5,742.5,SBD,Single-ply,M,1
J. Flores,100,Teen,13-19,215,142.5,232.5,590,SBD,Single-ply,M,2
J. Chovanec,110,Teen,13-19,220,137.5,245,602.5,SBD,Single-ply,M,1
S. Etheredge,110,Teen,13-19,205,135,185,525,SBD,Single-ply,M,2
S. Goodnight,125+,Teen,13-19,,,,,SBD,Single-ply,M,DQ
B. Hitt,44,Open,,77.5,42.5,95,215,SBD,Single-ply,F,1
Valerie Tyree,52,Open,,162.5,87.5,190,440,SBD,Single-ply,F,1
Laci Livingston,56,Open,,110,50,130,290,SBD,Single-ply,F,1
G. Chaffee,56,Open,,102.5,57.5,117.5,277.5,SBD,Single-ply,F,2
B. Carrillo,56,Open,,105,42.5,92.5,240,SBD,Single-ply,F,3
Jill Cowan,60,Open,,142.5,75,170,387.5,SBD,Single-ply,F,1
B. Kennedy,60,Open,,125,62.5,135,322.5,SBD,Single-ply,F,2
J. Kersh,60,Open,,100,,,,SBD,Single-ply,F,DQ
A. Morgan,60,Open,,112.5,62.5,135,310,SBD,Single-ply,F,3
B. Goupil,67.5,Open,,130,77.5,150,357.5,SBD,Single-ply,F,1
S. Shurina,67.5,Open,,132.5,77.5,145,355,SBD,Single-ply,F,2
L. Hager,67.5,Open,,125,65,150,340,SBD,Single-ply,F,3
L. Smith,75,Open,,125,77.5,160,362.5,SBD,Single-ply,F,1
Catherine Purcell,75,Open,,117.5,77.5,145,340,SBD,Single-ply,F,2
Jill Mills,82.5,Open,,232.5,147.5,227.5,607.5,SBD,Single-ply,F,1
E. Castillo,82.5,Open,,125,62.5,115,302.5,SBD,Single-ply,F,2
T. Tighe,56,Masters 40+,40-999,80,45,112.5,237.5,SBD,Single-ply,F,1
Jill Cowan,60,Masters 40+,40-999,142.5,75,170,387.5,SBD,Single-ply,F,1
Shary Barbee,82.5,Masters 40+,40-999,115,75,137.5,327.5,SBD,Single-ply,F,1
J. Ellis,48,Teen,13-19,105,47.5,125,277.5,SBD,Single-ply,F,1
D. Bartek,52,Teen,13-19,125,50,142.5,317.5,SBD,Single-ply,F,1
C. Boutte,52,Teen,13-19,97.5,45,120,262.5,SBD,Single-ply,F,2
Rikki Craig,60,Teen,13-19,122.5,67.5,125,315,SBD,Single-ply,F,1
R. Martinez,60,Teen,13-19,100,47.5,105,252.5,SBD,Single-ply,F,2
S. Perez,67.5,Teen,13-19,,,,,SBD,Single-ply,F,DQ
