Division,WeightClassKg,Place,Name,Team,BodyweightKg,Best3SquatKg,Best3BenchKg,Best3DeadliftKg,TotalKg,Equipment,Event,Sex
Boys,55.79,1,Michael Ramsey,Ranger,51.8,154.22,79.38,179.17,412.77,Single-ply,SBD,M
Boys,51.71,2,Antonio Ponce,Glen Rose,51.26,117.93,61.23,149.69,328.85,Single-ply,SBD,M
Boys,51.71,3,Kyle Jaynes,Rising Star,50.8,102.06,56.7,113.4,272.16,Single-ply,SBD,M
Boys,51.71,4,Tanner Resecker,Glen Rose,50.08,86.18,58.97,111.13,256.28,Single-ply,SBD,M
Boys,51.71,5,Echo Jones,Strawn,49.9,90.72,43.09,117.93,251.74,Single-ply,SBD,M
Boys,55.79,6,Peyton Johnson,San Saba,51.8,90.72,49.9,111.13,251.74,Single-ply,SBD,M
Boys,51.71,7,Stephen McNaught,Meridian,48.44,63.5,40.82,61.23,165.56,Single-ply,SBD,M
Boys,51.71,8,Ryan Daniel,Whitney,41,52.16,24.95,72.57,149.69,Single-ply,SBD,M
Boys,55.79,1,Nimo Vega,San Saba,55.43,147.42,77.11,172.37,396.89,Single-ply,SBD,M
Boys,59.87,2,Azahel Herrera,Glen Rose,55.88,142.88,92.99,149.69,385.55,Single-ply,SBD,M
Boys,55.79,3,Emiliano Mar,Clifton,55.79,129.27,70.31,142.88,342.46,Single-ply,SBD,M
Boys,55.79,4,Cesar Herrera,Glen Rose,53.16,127.01,72.57,129.27,328.85,Single-ply,SBD,M
Boys,55.79,5,Noah Weigant,Whitney,55.79,113.4,65.77,113.4,292.57,Single-ply,SBD,M
Boys,55.79,6,Cody Halcom,Glen Rose,53.52,111.13,58.97,120.2,290.3,Single-ply,SBD,M
Boys,55.79,7,Mason Mathews,Gatesville,55.52,92.99,58.97,127.01,278.96,Single-ply,SBD,M
Boys,55.79,8,Robbie Brewer,Clifton,53.07,102.06,58.97,102.06,263.08,Single-ply,SBD,M
Boys,55.79,9,Keith Ray,Stephenville,54.34,111.13,52.16,97.52,260.82,Single-ply,SBD,M
Boys,55.79,10,Evan Gravell,Bangs,53.52,86.18,61.23,102.06,249.48,Single-ply,SBD,M
Boys,59.87,1,Carlin Linnabery,Glen Rose,59.06,165.56,86.18,161.03,412.77,Single-ply,SBD,M
Boys,59.87,2,Dalton Zinck,Dublin,59.6,158.76,74.84,138.35,371.95,Single-ply,SBD,M
Boys,59.87,3,Ryan Martinez,Early,59.51,122.47,86.18,131.54,340.19,Single-ply,SBD,M
Boys,59.87,4,Tommy Jiminez,Gustine,59.24,115.67,70.31,138.35,324.32,Single-ply,SBD,M
Boys,59.87,5,Jonny Taylor,Stephenville,57.61,120.2,56.7,133.81,310.71,Single-ply,SBD,M
Boys,59.87,6,Kasey Sisson,Bangs,59.51,117.93,58.97,127.01,303.91,Single-ply,SBD,M
Boys,59.87,7,Paul Clark,Joshua,57.79,97.52,81.65,122.47,301.64,Single-ply,SBD,M
Boys,67.13,8,Isidro Bahena,Dublin,59.96,111.13,65.77,120.2,297.1,Single-ply,SBD,M
Boys,59.87,9,Jarred Childers,Meridian,59.06,95.25,72.57,102.06,269.89,Single-ply,SBD,M
Boys,59.87,10,Daniel Rodriguez #5,Dublin,57.52,79.38,61.23,111.13,251.74,Single-ply,SBD,M
Boys,59.87,DQ,Quenton Winborn,Early,58.24,158.76,,156.49,,Single-ply,SBD,M
Boys,59.87,DQ,Brennan Carey,Glen Rose,57.24,90.72,,108.86,,Single-ply,SBD,M
Boys,67.13,1,Walker Shelton,Tolar,66.32,185.97,104.33,197.31,487.61,Single-ply,SBD,M
Boys,67.13,2,Dakotah Martinez,Stephenville,64.14,147.42,90.72,174.63,412.77,Single-ply,SBD,M
Boys,67.13,3,Jesse Franco,San Saba,64.59,142.88,88.45,167.83,399.16,Single-ply,SBD,M
Boys,67.13,4,Nick Weigant,Whitney,63.68,151.95,92.99,145.15,390.09,Single-ply,SBD,M
Boys,67.13,5,Homer Ortiz,Santo,61.33,145.15,83.91,156.49,385.55,Single-ply,SBD,M
Boys,67.13,6,Justus Alaniz,Lometa,60.51,136.08,86.18,158.76,381.02,Single-ply,SBD,M
Boys,67.13,7,Ryan Robb,Whitney,65.32,136.08,92.99,149.69,378.75,Single-ply,SBD,M
Boys,67.13,8,Xavier Olivo,Strawn,63.5,142.88,83.91,142.88,369.68,Single-ply,SBD,M
Boys,67.13,9,Leroy Spruill,Bangs,60.69,136.08,77.11,131.54,344.73,Single-ply,SBD,M
Boys,67.13,10,Dylan Greene,Whitney,65.5,136.08,83.91,124.74,344.73,Single-ply,SBD,M
Boys,67.13,11,Harley Scroggins,Alvarado,67.04,122.47,79.38,140.61,342.46,Single-ply,SBD,M
Boys,67.13,12,Hayden Turner,Early,66.68,120.2,68.04,145.15,333.39,Single-ply,SBD,M
Boys,67.13,13,Cecil Peck,Hamilton,62.51,113.4,74.84,124.74,312.98,Single-ply,SBD,M
Boys,67.13,14,Chase Phelps,Bangs,60.51,113.4,58.97,133.81,306.17,Single-ply,SBD,M
Boys,67.13,15,Justin Little,Strawn,65.32,90.72,79.38,136.08,306.17,Single-ply,SBD,M
Boys,67.13,16,Cole Schkade,Santo,63.32,111.13,63.5,124.74,299.37,Single-ply,SBD,M
Boys,67.13,17,Ty Pauly,Lometa,60.69,95.25,58.97,113.4,267.62,Single-ply,SBD,M
Boys,67.13,18,Sam Marin,Strawn,62.6,106.59,56.7,104.33,267.62,Single-ply,SBD,M
Boys,67.13,19,Juan Tobias,San Saba,64.59,74.84,54.43,83.91,213.19,Single-ply,SBD,M
Boys,74.84,1,Chris Dingrando,Whitney,74.12,181.44,120.2,210.92,512.56,Single-ply,SBD,M
Boys,74.84,2,Trevor Crawford,Glen Rose,71.94,167.83,120.2,195.04,483.08,Single-ply,SBD,M
Boys,74.84,3,Luis Flores,Clifton,68.95,176.9,113.4,183.7,474,Single-ply,SBD,M
Boys,74.84,4,Jt Estes,Whitney,68.95,174.63,117.93,172.37,464.93,Single-ply,SBD,M
Boys,74.84,5,Fidel Perez,Dublin,72.3,179.17,111.13,158.76,449.06,Single-ply,SBD,M
Boys,74.84,6,Gilberto Flores,Clifton,69.22,172.37,115.67,158.76,446.79,Single-ply,SBD,M
Boys,74.84,7,Armando Aguilar,Gustine,69.85,161.03,104.33,165.56,430.91,Single-ply,SBD,M
Boys,74.84,8,Matt Dingrando,Whitney,74.66,167.83,99.79,163.29,430.91,Single-ply,SBD,M
Boys,74.84,9,Nathan Smith #9,Glen Rose,68.76,158.76,99.79,167.83,426.38,Single-ply,SBD,M
Boys,74.84,10,Lane Yancey,Joshua,73.57,142.88,92.99,174.63,410.5,Single-ply,SBD,M
Boys,74.84,11,Zach Gartman,Cross Plains,68.95,158.76,79.38,158.76,396.89,Single-ply,SBD,M
Boys,74.84,12,Logan Thomas,Early,73.48,140.61,95.25,158.76,394.63,Single-ply,SBD,M
Boys,74.84,13,Kaleb Madison,Joshua,71.58,142.88,86.18,154.22,383.29,Single-ply,SBD,M
Boys,74.84,14,Dom Flores,Ranger,72.39,142.88,68.04,170.1,381.02,Single-ply,SBD,M
Boys,74.84,15,MacKenzie Dulaney,Meridian,73.57,147.42,74.84,156.49,378.75,Single-ply,SBD,M
Boys,74.84,16,Jacob Locke,Glen Rose,67.49,147.42,70.31,154.22,371.95,Single-ply,SBD,M
Boys,74.84,17,Lucas Ramsey,Meridian,68.58,127.01,72.57,136.08,335.66,Single-ply,SBD,M
Boys,74.84,18,Ryan Gaitan,Dublin,70.76,104.33,74.84,111.13,290.3,Single-ply,SBD,M
Boys,74.84,19,Parker Hallmark,Lingleville,74.39,92.99,74.84,95.25,263.08,Single-ply,SBD,M
Boys,74.84,DQ,Grayson Ebarb,Early,72.76,151.95,,124.74,,Single-ply,SBD,M
Boys,82.1,1,Chase McGhee,Gatesville,79.11,258.55,165.56,249.48,673.58,Single-ply,SBD,M
Boys,82.1,2,Luke Bowling,Santo,81.28,226.8,136.08,238.14,601.01,Single-ply,SBD,M
Boys,82.1,3,Dustin Murphy,Clifton,81.74,199.58,129.27,215.46,544.31,Single-ply,SBD,M
Boys,89.81,4,Dawson Lochridge,Whitney,82.28,181.44,117.93,190.51,489.88,Single-ply,SBD,M
Boys,82.1,5,Jake Luker,Hamilton,80.29,188.24,111.13,170.1,469.47,Single-ply,SBD,M
Boys,82.1,6,Chase Mackey,Strawn,82.01,158.76,92.99,185.97,437.72,Single-ply,SBD,M
Boys,82.1,7,Tristan Peck,Hamilton,78.74,147.42,83.91,163.29,394.63,Single-ply,SBD,M
Boys,82.1,8,Aaron Herrin,Hamilton,81.92,151.95,104.33,138.35,394.63,Single-ply,SBD,M
Boys,82.1,9,Izmiel Torres,Dublin,79.92,124.74,92.99,170.1,387.82,Single-ply,SBD,M
Boys,82.1,10,Jose Martinez,Rising Star,78.2,131.54,90.72,158.76,381.02,Single-ply,SBD,M
Boys,82.1,11,Abe Morris,Early,78.47,113.4,83.91,147.42,344.73,Single-ply,SBD,M
Boys,82.1,12,Jared Burchard,Alvarado,77.29,127.01,90.72,124.74,342.46,Single-ply,SBD,M
Boys,82.1,13,Elton Galbreath,Dublin,76.57,133.81,61.23,133.81,328.85,Single-ply,SBD,M
Boys,82.1,14,Michael Ivy,Santo,79.56,124.74,65.77,129.27,319.78,Single-ply,SBD,M
Boys,82.1,DQ,Michael Hallman,Gatesville,78.2,149.69,,,,Single-ply,SBD,M
Boys,89.81,1,Rudy Rodriguez,Dublin,83.46,204.12,108.86,192.78,505.76,Single-ply,SBD,M
Boys,89.81,2,Jason Schmidt #1,Clifton,87.91,185.97,106.59,206.38,498.95,Single-ply,SBD,M
Boys,89.81,3,Cody Morrison,Early,85,199.58,83.91,204.12,487.61,Single-ply,SBD,M
Boys,89.81,4,Damian Hatcher,Dublin,85.64,170.1,115.67,174.63,460.4,Single-ply,SBD,M
Boys,89.81,5,Sam Jackson #1,Gatesville,87.27,163.29,106.59,170.1,439.98,Single-ply,SBD,M
Boys,89.81,6,Jaime Reynoso,Meridian,83.01,145.15,97.52,158.76,401.43,Single-ply,SBD,M
Boys,99.79,7,Brian Riggs,San Saba,89.9,149.69,97.52,151.95,399.16,Single-ply,SBD,M
Boys,89.81,8,Albert Elizando,Early,88.36,142.88,102.06,136.08,381.02,Single-ply,SBD,M
Boys,99.79,9,Nain Martinez,Cross Plains,90.04,147.42,83.91,142.88,374.21,Single-ply,SBD,M
Boys,89.81,10,Justin Miller,Joshua,89.27,136.08,95.25,140.61,371.95,Single-ply,SBD,M
Boys,89.81,11,Josh Ramsey,Meridian,89.45,131.54,90.72,140.61,362.87,Single-ply,SBD,M
Boys,89.81,12,Justin Wardlow,Whitney,86.45,90.72,77.11,127.01,294.84,Single-ply,SBD,M
Boys,89.81,13,Timmy Thomas,Whitney,84.46,102.06,74.84,111.13,288.03,Single-ply,SBD,M
Boys,89.81,DQ,Gordon Lewis,Tolar,83.82,,,192.78,,Single-ply,SBD,M
Boys,89.81,DQ,Chandler McCombs,San Saba,86.64,,97.52,,,Single-ply,SBD,M
Boys,89.81,DQ,Justin Mosley,Gatesville,82.92,188.24,,183.7,,Single-ply,SBD,M
Boys,89.81,DQ,Sam Johnson #4,Hamilton,83.91,136.08,,102.06,,Single-ply,SBD,M
Boys,99.79,1,Nathaniel Rutherford,Joshua,99.43,242.67,124.74,226.8,594.21,Single-ply,SBD,M
Boys,99.79,2,Braxton Barrios,Glen Rose,99.43,219.99,136.08,188.24,544.31,Single-ply,SBD,M
Boys,99.79,3,Ambrosio Rodriguez,Dublin,98.34,210.92,124.74,206.38,542.04,Single-ply,SBD,M
Boys,99.79,4,Dawson Matheny,Glen Rose,93.89,181.44,127.01,204.12,512.56,Single-ply,SBD,M
Boys,99.79,5,Miguel Barraza,Glen Rose,96.71,199.58,122.47,181.44,503.49,Single-ply,SBD,M
Boys,99.79,6,Ismael Ramirez,Gustine,97.07,185.97,120.2,181.44,487.61,Single-ply,SBD,M
Boys,99.79,7,Nate Ramirez,Whitney,94.17,192.78,115.67,165.56,474,Single-ply,SBD,M
Boys,99.79,8,Cody Wilson #6,Hamilton,98.34,179.17,102.06,181.44,462.66,Single-ply,SBD,M
Boys,99.79,9,Jesus Garza,Meridian,99.34,136.08,104.33,172.37,412.77,Single-ply,SBD,M
Boys,99.79,10,Austin Gonzales,Alvarado,99.06,158.76,97.52,145.15,401.43,Single-ply,SBD,M
Boys,99.79,11,Josue Olvera,Stephenville,92.8,151.95,97.52,142.88,392.36,Single-ply,SBD,M
Boys,99.79,12,Elifonso Vargas,Joshua,93.53,147.42,83.91,149.69,381.02,Single-ply,SBD,M
Boys,99.79,13,Austin Coker,Santo,96.43,158.76,83.91,136.08,378.75,Single-ply,SBD,M
Boys,99.79,DQ,Alejandro Rodriguez,Joshua,99.34,,,,,Single-ply,SBD,M
Boys,99.79,DQ,Jose Diaz #8,Joshua,95.25,,,,,Single-ply,SBD,M
Boys,99.79,DQ,Aaron Platt,Tolar,98.7,,147.42,210.92,,Single-ply,SBD,M
Boys,99.79,DQ,Jordan Larance,Clifton,92.53,,97.52,172.37,,Single-ply,SBD,M
Boys,124.74,1,Seth White,Alvarado,110,290.3,179.17,231.33,700.8,Single-ply,SBD,M
Boys,109.77,2,Heath Nicholson,Glen Rose,100.88,260.82,127.01,265.35,653.17,Single-ply,SBD,M
Boys,109.77,3,Justin Rhyne,Gatesville,107.32,204.12,167.83,208.65,580.6,Single-ply,SBD,M
Boys,109.77,4,Quentin McKinnerney,Bangs,102.87,226.8,113.4,165.56,505.76,Single-ply,SBD,M
Boys,109.77,5,Brandon Taylor,Gatesville,100.88,190.51,95.25,201.85,487.61,Single-ply,SBD,M
Boys,109.77,6,David Madore,Ranger,105.41,161.03,124.74,195.04,480.81,Single-ply,SBD,M
Boys,124.74,7,Jacob Mata,Clifton,110,165.56,117.93,185.97,469.47,Single-ply,SBD,M
Boys,109.77,8,Justin Wade,Stephenville,100.33,151.95,111.13,192.78,455.86,Single-ply,SBD,M
Boys,109.77,9,Drannon Brewer,Glen Rose,102.51,167.83,83.91,190.51,442.25,Single-ply,SBD,M
Boys,109.77,10,Bubba Bailey,Early,100.88,156.49,83.91,147.42,387.82,Single-ply,SBD,M
Boys,109.77,DQ,Jiri Michalicek,Dublin,101.06,111.13,70.31,,,Single-ply,SBD,M
Boys,124.74,1,Jordan Westbrook,Gatesville,116.94,219.99,154.22,204.12,578.33,Single-ply,SBD,M
Boys,124.74,2,Zach Mack,Gatesville,123.65,174.63,99.79,179.17,453.59,Single-ply,SBD,M
Boys,124.74,3,Gunner Bradley,Lometa,117.57,154.22,95.25,167.83,417.3,Single-ply,SBD,M
Boys,124.74,4,Kyle Waling,Lometa,113.04,154.22,95.25,156.49,405.97,Single-ply,SBD,M
Boys,124.74,DQ,Chris Bullington,Gatesville,119.02,192.78,108.86,,,Single-ply,SBD,M
Boys,124.74,DQ,Silas McMlathey,Alvarado,110.68,167.83,102.06,,,Single-ply,SBD,M
Boys,124.74+,1,Weldon Edwards,Early,151.5,204.12,113.4,192.78,510.29,Single-ply,SBD,M
Boys,124.74+,2,Bucky McDaniel,Early,136.53,183.7,129.27,170.1,483.08,Single-ply,SBD,M
Boys,124.74+,3,Logan Nuss,Alvarado,128,181.44,122.47,147.42,451.32,Single-ply,SBD,M
Boys,124.74+,4,Wesley Gates,San Saba,128,183.7,88.45,170.1,442.25,Single-ply,SBD,M
Boys,124.74+,5,Jacob Lopez,Stephenville,125.19,124.74,83.91,142.88,351.53,Single-ply,SBD,M
Boys,124.74+,6,Cody Zachary,Stephenville,134.72,124.74,83.91,142.88,351.53,Single-ply,SBD,M
Boys,124.74+,DQ,Jessie Wilson,Whitney,150.96,,,272.16,,Single-ply,SBD,M
Boys,124.74+,DQ,Jordan Allen,Clifton,158.03,,138.35,185.97,,Single-ply,SBD,M
