Division,WeightClassKg,Place,Name,Team,BodyweightKg,Best3SquatKg,Best3BenchKg,Best3DeadliftKg,TotalKg,Equipment,Event,Sex
Freshmen,55.79,1,John Dexter,Bandera,51.8,92.99,70.31,113.4,276.69,Single-ply,SBD,M
Freshmen,51.71,DQ,Michael Schneider,Castroville Medina Valley,50.98,,,,,Single-ply,SBD,M
Freshmen,55.79,1,Benjamin Uribe,Jourdanton,55.43,106.59,61.23,111.13,278.96,Single-ply,SBD,M
Freshmen,55.79,DQ,Jacob Reza,Castroville Medina Valley,53.52,,,,,Single-ply,SBD,M
Freshmen,59.87,1,Seth Tarvin,Castroville Medina Valley,58.51,83.91,47.63,113.4,244.94,Single-ply,SBD,M
Freshmen,67.13,1,Fabian Reyna,Jourdanton,62.78,115.67,88.45,136.08,340.19,Single-ply,SBD,M
Freshmen,67.13,2,Calviin Starnes,Bandera,63.96,104.33,74.84,127.01,306.17,Single-ply,SBD,M
Freshmen,67.13,3,Ivan Fernandez,Castroville Medina Valley,62.14,90.72,56.7,115.67,263.08,Single-ply,SBD,M
Freshmen,74.84,1,Jonathan Darby,Lytle,72.67,138.35,83.91,151.95,374.21,Single-ply,SBD,M
Freshmen,74.84,2,Dean Santos,Lytle,69.13,140.61,83.91,104.33,328.85,Single-ply,SBD,M
Freshmen,74.84,DQ,Jason Hoosier,Somerset,74.84,,,,,Single-ply,SBD,M
Freshmen,74.84,DQ,Spencer Taylor,Somerset,74.84,,,,,Single-ply,SBD,M
Freshmen,82.1,1,Steve Medrano,Dilley,76.75,161.03,88.45,158.76,408.23,Single-ply,SBD,M
Freshmen,82.1,2,Isiah Garcia,Del Rio,77.38,151.95,68.04,154.22,374.21,Single-ply,SBD,M
Freshmen,82.1,3,Jake Kinney,Bandera,81.47,122.47,86.18,120.2,328.85,Single-ply,SBD,M
Freshmen,82.1,4,Jonathan Daughtery,Bandera,77.38,124.74,72.57,115.67,312.98,Single-ply,SBD,M
Freshmen,82.1,5,Raul Hernandez,Del Rio,76.02,92.99,83.91,129.27,306.17,Single-ply,SBD,M
Freshmen,82.1,6,Fidencio Ramon,Devine,78.74,106.59,77.11,111.13,294.84,Single-ply,SBD,M
Freshmen,89.81,7,Mark Sustaita,Castroville Medina Valley,82.19,106.59,56.7,124.74,288.03,Single-ply,SBD,M
Freshmen,82.1,8,Bridger Netting,Castroville Medina Valley,80.92,74.84,52.16,117.93,244.94,Single-ply,SBD,M
Freshmen,82.1,9,Phillip Aguero,Somerset,77.11,83.91,43.09,111.13,238.14,Single-ply,SBD,M
Freshmen,89.81,1,Dallin Hack,Lytle,84.64,145.15,95.25,156.49,396.89,Single-ply,SBD,M
Freshmen,89.81,2,Dakota Marshall,Somerset,89.81,90.72,77.11,127.01,294.84,Single-ply,SBD,M
Freshmen,89.81,3,Michael DeLeon,Somerset,87.09,77.11,56.7,106.59,240.4,Single-ply,SBD,M
Freshmen,99.79,1,Robert Cervantes,Dilley,90.81,158.76,88.45,165.56,412.77,Single-ply,SBD,M
Freshmen,99.79,2,Dustyn Hawes,Castroville Medina Valley,93.71,117.93,90.72,149.69,358.34,Single-ply,SBD,M
Freshmen,99.79,3,Armando Veliz,Del Rio,95.89,124.74,63.5,120.2,308.44,Single-ply,SBD,M
Freshmen,99.79,4,Fernando Jamie,Somerset,93.89,92.99,68.04,117.93,278.96,Single-ply,SBD,M
Freshmen,109.77,1,Elijah Rejino,Devine,105.6,158.76,113.4,158.76,430.91,Single-ply,SBD,M
Freshmen,109.77,2,Nathan Serna,Jourdanton,109.32,158.76,90.72,142.88,392.36,Single-ply,SBD,M
Freshmen,124.74,1,Hector Serrano,Somerset,121.56,172.37,81.65,181.44,435.45,Single-ply,SBD,M
Freshmen,124.74,2,Hernan Veloz,Del Rio,113.31,161.03,83.91,142.88,387.82,Single-ply,SBD,M
Freshmen,124.74,3,Javier De Leon,Somerset,124.74,113.4,61.23,104.33,278.96,Single-ply,SBD,M
Freshmen,124.74,DQ,Andrew Bachmann,Bandera,118.02,,,,,Single-ply,SBD,M
Freshmen,124.74+,1,Chris Cobb,Somerset,129.73,108.86,61.23,136.08,306.17,Single-ply,SBD,M
Freshmen,,NS,Jamie Rodriguez,Jourdanton,,,,,,Single-ply,SBD,M
Freshmen,,NS,Aaron Jupe,Jourdanton,,,,,,Single-ply,SBD,M
Freshmen,,NS,Sam Morales,Castroville Medina Valley,,,,,,Single-ply,SBD,M
Freshmen,,NS,Alex Hewgley,Castroville Medina Valley,,,,,,Single-ply,SBD,M
Freshmen,,NS,Philip Weir,Castroville Medina Valley,,,,,,Single-ply,SBD,M
Freshmen,,NS,Houston Crawford,Castroville Medina Valley,,,,,,Single-ply,SBD,M
Freshmen,,NS,Parker Payne,Castroville Medina Valley,,,,,,Single-ply,SBD,M
Junior Varsity,51.71,1,Ruben Mendez,Castroville Medina Valley,51.17,79.38,47.63,97.52,224.53,Single-ply,SBD,M
Junior Varsity,59.87,1,Sebastian Estrada,Somerset,56.02,122.47,58.97,138.35,319.78,Single-ply,SBD,M
Junior Varsity,59.87,2,Auston Garza,Somerset,56.02,74.84,52.16,124.74,251.74,Single-ply,SBD,M
Junior Varsity,55.79,3,Miguel Alvarado,Somerset,53.07,70.31,45.36,95.25,210.92,Single-ply,SBD,M
Junior Varsity,67.13,1,Sid Alcoser,Somerset,59.96,167.83,77.11,156.49,401.43,Single-ply,SBD,M
Junior Varsity,59.87,2,Raul Cruz,Carrizo Springs,58.69,129.27,74.84,147.42,351.53,Single-ply,SBD,M
Junior Varsity,59.87,3,Steven Juarez,Castroville Medina Valley,56.79,79.38,61.23,113.4,254.01,Single-ply,SBD,M
Junior Varsity,67.13,1,Nathan Pringle,Lytle,62.6,142.88,83.91,163.29,390.09,Single-ply,SBD,M
Junior Varsity,67.13,2,Nathan Ramos,Jourdanton,64.23,138.35,68.04,158.76,365.14,Single-ply,SBD,M
Junior Varsity,67.13,3,Joseph Soria,Lytle,64.68,133.81,79.38,145.15,358.34,Single-ply,SBD,M
Junior Varsity,67.13,4,Ian Hons,Jourdanton,63.87,136.08,83.91,115.67,335.66,Single-ply,SBD,M
Junior Varsity,67.13,5,Xavier Huerta,Lytle,63.23,124.74,72.57,136.08,333.39,Single-ply,SBD,M
Junior Varsity,67.13,6,Ryan Copeland,Lytle,63.5,97.52,70.31,151.95,319.78,Single-ply,SBD,M
Junior Varsity,67.13,DQ,Michael Chavarria,San Antonio Brooks Academy,61.33,111.13,74.84,,,Single-ply,SBD,M
Junior Varsity,74.84,1,Jonathan Stoufflet,Bandera,70.67,158.76,88.45,181.44,428.64,Single-ply,SBD,M
Junior Varsity,74.84,2,Buddy Vega,Jourdanton,71.21,151.95,90.72,145.15,387.82,Single-ply,SBD,M
Junior Varsity,74.84,3,José Fernández,San Antonio Brooks Academy,74.3,138.35,72.57,138.35,349.27,Single-ply,SBD,M
Junior Varsity,82.1,4,N'Miah Davis,Bandera,74.93,122.47,77.11,129.27,328.85,Single-ply,SBD,M
Junior Varsity,82.1,5,Oscar de Luna,San Antonio Memorial,75.02,129.27,56.7,124.74,310.71,Single-ply,SBD,M
Junior Varsity,74.84,6,Nathan Salazar,Somerset,72.57,90.72,68.04,113.4,272.16,Single-ply,SBD,M
Junior Varsity,74.84,DQ,Ray Riojas,Carrizo Springs,68.58,,,,,Single-ply,SBD,M
Junior Varsity,74.84,DQ,Demetri Moliina,Somerset,74.39,,,,,Single-ply,SBD,M
Junior Varsity,82.1,1,Oriando Medrano,Lytle,77.66,188.24,117.93,181.44,487.61,Single-ply,SBD,M
Junior Varsity,82.1,2,Alex Aguero,Jourdanton,79.47,183.7,97.52,183.7,464.93,Single-ply,SBD,M
Junior Varsity,82.1,3,Thomas Rodriguez,Somerset,80.65,176.9,81.65,181.44,439.98,Single-ply,SBD,M
Junior Varsity,82.1,4,Joe Rodriguez,Bandera,80.83,124.74,83.91,142.88,351.53,Single-ply,SBD,M
Junior Varsity,82.1,5,Edgar Magallanz,Lytle,80.56,136.08,63.5,122.47,322.05,Single-ply,SBD,M
Junior Varsity,89.81,1,Thomas Gaither,Jourdanton,88.36,149.69,86.18,158.76,394.63,Single-ply,SBD,M
Junior Varsity,89.81,2,Frank Balaszi,Jourdanton,85.09,147.42,92.99,145.15,385.55,Single-ply,SBD,M
Junior Varsity,89.81,3,Thomas Duran,San Antonio Brooks Academy,89.72,131.54,92.99,142.88,367.41,Single-ply,SBD,M
Junior Varsity,89.81,4,Ceasar Urbano,Del Rio,89.72,145.15,70.31,140.61,356.07,Single-ply,SBD,M
Junior Varsity,89.81,5,Nathan Ortiz,Carrizo Springs,83.64,99.79,68.04,131.54,299.37,Single-ply,SBD,M
Junior Varsity,99.79,1,Jesus Piliado,Somerset,94.35,217.72,92.99,188.24,498.95,Single-ply,SBD,M
Junior Varsity,99.79,2,Joey Sanchez,Somerset,99.79,145.15,106.59,165.56,417.3,Single-ply,SBD,M
Junior Varsity,99.79,3,Troy Cole,Castroville Medina Valley,92.71,156.49,88.45,161.03,405.97,Single-ply,SBD,M
Junior Varsity,99.79,4,Ryan Gibson,Jourdanton,94.44,165.56,79.38,147.42,392.36,Single-ply,SBD,M
Junior Varsity,109.77,1,Jacob Ybarra,Somerset,107.5,219.99,136.08,199.58,555.65,Single-ply,SBD,M
Junior Varsity,109.77,2,William Olson,Jourdanton,108.32,226.8,133.81,183.7,544.31,Single-ply,SBD,M
Junior Varsity,109.77,3,Jose Coronado,San Antonio Memorial,106.32,131.54,68.04,131.54,331.12,Single-ply,SBD,M
Junior Varsity,124.74,1,Josh Silva,Somerset,120.2,181.44,131.54,204.12,517.1,Single-ply,SBD,M
Junior Varsity,124.74,2,Justin Brister,Jourdanton,111.67,195.04,124.74,190.51,510.29,Single-ply,SBD,M
Junior Varsity,124.74,3,Zach Torres,Somerset,113.4,188.24,104.33,170.1,462.66,Single-ply,SBD,M
Junior Varsity,124.74,4,Daniel Ramirez,Somerset,113.4,176.9,102.06,174.63,453.59,Single-ply,SBD,M
Junior Varsity,124.74,5,Brandon Williams #1,Del Rio,118.75,163.29,102.06,176.9,442.25,Single-ply,SBD,M
Junior Varsity,124.74,6,Tino Torres,Carrizo Springs,116.03,145.15,86.18,167.83,399.16,Single-ply,SBD,M
Junior Varsity,124.74,DQ,Joe Reschman,Somerset,115.67,,,,,Single-ply,SBD,M
Junior Varsity,124.74,DQ,Joe Tovar,Somerset,112.49,,,,,Single-ply,SBD,M
Junior Varsity,124.74,DQ,Refugio Faz,Somerset,114.76,,,,,Single-ply,SBD,M
Junior Varsity,124.74+,1,Michael Romero,Somerset,127.01,204.12,142.88,142.88,489.88,Single-ply,SBD,M
Junior Varsity,124.74+,2,Jay Sandoval,San Antonio Memorial,148.14,163.29,97.52,176.9,437.72,Single-ply,SBD,M
Junior Varsity,124.74+,3,Paul Esparza,San Antonio Brooks Academy,129.55,149.69,97.52,172.37,419.57,Single-ply,SBD,M
Junior Varsity,124.74+,4,Mario Chavez,Carrizo Springs,163.84,163.29,77.11,176.9,417.3,Single-ply,SBD,M
Junior Varsity,124.74+,5,Christian Soria,Somerset,135.62,136.08,86.18,136.08,358.34,Single-ply,SBD,M
Junior Varsity,,NS,Steven Galan,Carrizo Springs,,,,,,Single-ply,SBD,M
Junior Varsity,,NS,Albert Romo,Castroville Medina Valley,,,,,,Single-ply,SBD,M
Junior Varsity,,NS,James Martinez #6,Castroville Medina Valley,,,,,,Single-ply,SBD,M
Junior Varsity,,NS,Andres Rodriguez,Castroville Medina Valley,,,,,,Single-ply,SBD,M
Junior Varsity,,NS,Robert Rodriguez,Castroville Medina Valley,,,,,,Single-ply,SBD,M
Junior Varsity,,NS,Mason Foster,Castroville Medina Valley,,,,,,Single-ply,SBD,M
Junior Varsity,,NS,Isaac Robles #3,Castroville Medina Valley,,,,,,Single-ply,SBD,M
Junior Varsity,,NS,Deondre Omorayi,Carrizo Springs,,,,,,Single-ply,SBD,M
Junior Varsity,,NS,David Owen,Lytle,,,,,,Single-ply,SBD,M
Boys,51.71,1,Angel Bermudez,Poteet,51.07,140.61,95.25,147.42,383.29,Single-ply,SBD,M
Boys,55.79,2,Jermaine Mendiola,Somerset,51.94,149.69,65.77,147.42,362.87,Single-ply,SBD,M
Boys,55.79,3,Uriel Solorzano,Jourdanton,51.89,136.08,65.77,136.08,337.93,Single-ply,SBD,M
Boys,51.71,4,Isaiah Lucio,Pearsall,49.99,108.86,74.84,117.93,301.64,Single-ply,SBD,M
Boys,55.79,5,Dimas Tenorio,Crystal City,51.8,106.59,61.23,133.81,301.64,Single-ply,SBD,M
Boys,51.71,6,Jethro Stokes,Lytle,51.26,113.4,58.97,120.2,292.57,Single-ply,SBD,M
Boys,51.71,7,Alan Terrazas,Devine,46.08,97.52,54.43,113.4,265.35,Single-ply,SBD,M
Boys,51.71,8,Edward Devora,Castroville Medina Valley,49.99,81.65,58.97,102.06,242.67,Single-ply,SBD,M
Boys,55.79,1,Ricky Guerra,Poteet,55.16,174.63,113.4,181.44,469.47,Single-ply,SBD,M
Boys,55.79,2,Mauro Garcia,Port Lavaca Calhoun,55.61,158.76,83.91,167.83,410.5,Single-ply,SBD,M
Boys,59.87,3,Matthew Medrano,Pearsall,55.88,140.61,63.5,151.95,356.07,Single-ply,SBD,M
Boys,55.79,4,Chaz Graham,Lytle,55.52,124.74,72.57,149.69,347,Single-ply,SBD,M
Boys,55.79,5,Javier Flores,Crystal City,54.52,106.59,81.65,124.74,312.98,Single-ply,SBD,M
Boys,55.79,6,Zach Harding,Castroville Medina Valley,55.07,124.74,56.7,131.54,312.98,Single-ply,SBD,M
Boys,55.79,DQ,Colton Rodriguez,Jourdanton,54.16,,,,,Single-ply,SBD,M
Boys,55.79,DQ,Jm Elizondo,Pearsall,53.52,,,,,Single-ply,SBD,M
Boys,59.87,1,Sawyer Yandell,Devine,59.69,206.38,104.33,219.99,530.7,Single-ply,SBD,M
Boys,67.13,2,Alan Espinosa,Dilley,60.1,181.44,92.99,195.04,469.47,Single-ply,SBD,M
Boys,59.87,3,Adam Austin,Del Rio,59.33,183.7,95.25,179.17,458.13,Single-ply,SBD,M
Boys,59.87,4,Rudy Martinez,Carrizo Springs,59.06,172.37,86.18,181.44,439.98,Single-ply,SBD,M
Boys,59.87,5,Hilario Luna,Beeville Jones,58.24,158.76,102.06,174.63,435.45,Single-ply,SBD,M
Boys,67.13,6,Oscar de Leon,Somerset,60.06,149.69,92.99,161.03,403.7,Single-ply,SBD,M
Boys,59.87,7,Tyler Davis,Jourdanton,59.78,161.03,92.99,147.42,401.43,Single-ply,SBD,M
Boys,59.87,8,Isaac Lopez,Jourdanton,59.6,156.49,90.72,136.08,383.29,Single-ply,SBD,M
Boys,59.87,9,Joe Guerrero,Devine,59.87,149.69,77.11,156.49,383.29,Single-ply,SBD,M
Boys,59.87,10,Reno Rodriguez,Pearsall,58.51,138.35,81.65,156.49,376.48,Single-ply,SBD,M
Boys,59.87,11,Robert Rendon,Crystal City,57.33,122.47,68.04,129.27,319.78,Single-ply,SBD,M
Boys,59.87,DQ,Cody Trivino,Devine,56.34,131.54,,,,Single-ply,SBD,M
Boys,67.13,1,Elijah Velasquez,Port Lavaca Calhoun,66.04,226.8,120.2,192.78,539.77,Single-ply,SBD,M
Boys,67.13,2,Samuel Navarro,Beeville Jones,64.77,197.31,113.4,197.31,508.02,Single-ply,SBD,M
Boys,67.13,3,Jade Haney,Port Lavaca Calhoun,65.59,192.78,108.86,199.58,501.22,Single-ply,SBD,M
Boys,67.13,4,Josh Ramos,Somerset,66.9,213.19,90.72,188.24,492.15,Single-ply,SBD,M
Boys,67.13,5,Chris Aguilar,San Antonio Memorial,63.5,158.76,108.86,199.58,467.2,Single-ply,SBD,M
Boys,67.13,6,Ozzy Gonzalez,Somerset,67.09,190.51,74.84,176.9,442.25,Single-ply,SBD,M
Boys,67.13,7,JC Garcia,Port Lavaca Calhoun,65.05,170.1,92.99,176.9,439.98,Single-ply,SBD,M
Boys,67.13,8,Andrew Esquivel,Carrizo Springs,65.77,163.29,97.52,176.9,437.72,Single-ply,SBD,M
Boys,67.13,9,Nathan Medrano,Lytle,66.41,165.56,92.99,158.76,417.3,Single-ply,SBD,M
Boys,67.13,10,Isac Alvarez,Crystal City,65.14,154.22,83.91,158.76,396.89,Single-ply,SBD,M
Boys,67.13,11,Daniel Martinez #16,Port Lavaca Calhoun,60.96,142.88,81.65,161.03,385.55,Single-ply,SBD,M
Boys,67.13,12,Wyatt Scheff,Devine,62.23,138.35,88.45,154.22,381.02,Single-ply,SBD,M
Boys,67.13,13,Anthony Vallejo,Beeville Jones,64.5,129.27,92.99,158.76,381.02,Single-ply,SBD,M
Boys,67.13,14,Jj Aguinaga,Lytle,66.5,140.61,74.84,154.22,369.68,Single-ply,SBD,M
Boys,67.13,15,Eliseo Cuevas,San Antonio Memorial,63.41,113.4,86.18,149.69,349.27,Single-ply,SBD,M
Boys,67.13,16,Joey Jimenez,Del Rio,66.68,115.67,70.31,136.08,322.05,Single-ply,SBD,M
Boys,67.13,17,Derek Cordova,Beeville Jones,62.78,102.06,61.23,136.08,299.37,Single-ply,SBD,M
Boys,67.13,DQ,Jess Rutledge,Carrizo Springs,61.23,176.9,99.79,,,Single-ply,SBD,M
Boys,74.84,DQ,Raul Garcia,Carrizo Springs,67.31,188.24,,,,Single-ply,SBD,M
Boys,74.84,1,Tristan Pelitire,Beeville Jones,74.39,244.94,170.1,231.33,646.37,Single-ply,SBD,M
Boys,74.84,2,Joe Caldera,Port Lavaca Calhoun,74.48,204.12,140.61,215.46,560.19,Single-ply,SBD,M
Boys,82.1,3,Dillon Torres,Beeville Jones,74.93,201.85,124.74,233.6,560.19,Single-ply,SBD,M
Boys,74.84,4,John Valdez,Somerset,74.66,222.26,127.01,185.97,535.24,Single-ply,SBD,M
Boys,74.84,5,Joseph Ortiz,Jourdanton,70.67,185.97,108.86,188.24,483.08,Single-ply,SBD,M
Boys,74.84,6,Josh Moss,Del Rio,74.12,179.17,111.13,190.51,480.81,Single-ply,SBD,M
Boys,74.84,7,David Puente,Crystal City,74.3,165.56,108.86,190.51,464.93,Single-ply,SBD,M
Boys,74.84,8,Steven Sartuche,Devine,74.48,163.29,108.86,190.51,462.66,Single-ply,SBD,M
Boys,74.84,9,John Santos #1,Lytle,74.57,185.97,95.25,176.9,458.13,Single-ply,SBD,M
Boys,74.84,10,Diego Hernandez,Lytle,71.76,165.56,102.06,165.56,433.18,Single-ply,SBD,M
Boys,74.84,11,Bradley Mankin,Carrizo Springs,74.84,136.08,79.38,167.83,383.29,Single-ply,SBD,M
Boys,82.1,1,Joe Estrada,Jourdanton,81.56,265.35,176.9,229.06,671.32,Single-ply,SBD,M
Boys,82.1,2,Pedro Molina,Somerset,79.38,244.94,129.27,254.01,628.23,Single-ply,SBD,M
Boys,82.1,3,Gabriel Casarez,Port Lavaca Calhoun,80.56,226.8,117.93,201.85,546.58,Single-ply,SBD,M
Boys,82.1,4,Christopher Vinton,Pearsall,79.2,213.19,127.01,197.31,537.51,Single-ply,SBD,M
Boys,89.81,5,Micheal Chavez,Devine,82.28,210.92,117.93,181.44,510.29,Single-ply,SBD,M
Boys,82.1,6,Francisco Martinez,Poteet,78.56,190.51,127.01,188.24,505.76,Single-ply,SBD,M
Boys,82.1,7,Dylan Aguinaga,Lytle,79.02,192.78,106.59,192.78,492.15,Single-ply,SBD,M
Boys,82.1,8,AJ Camacho,Hondo,80.47,183.7,106.59,165.56,455.86,Single-ply,SBD,M
Boys,82.1,9,Xzavier Reyes,Poteet,79.02,131.54,68.04,136.08,335.66,Single-ply,SBD,M
Boys,82.1,DQ,Hunter Peterson,Castroville Medina Valley,79.74,204.12,113.4,,,Single-ply,SBD,M
Boys,89.81,1,Justin Quesada,Somerset,87.23,249.48,151.95,219.99,621.42,Single-ply,SBD,M
Boys,89.81,2,Jacob Flores,Beeville Jones,87.54,254.01,129.27,229.06,612.35,Single-ply,SBD,M
Boys,89.81,3,Mark Bocanegra,Jourdanton,89.45,258.55,149.69,197.31,605.55,Single-ply,SBD,M
Boys,89.81,4,Jon Ventura,Pearsall,87.45,219.99,129.27,244.94,594.21,Single-ply,SBD,M
Boys,89.81,5,Chris Toenes,Bandera,87.91,206.38,129.27,208.65,544.31,Single-ply,SBD,M
Boys,89.81,6,Nick Andreas,Bandera,87.54,206.38,124.74,201.85,532.97,Single-ply,SBD,M
Boys,89.81,7,Justin Laque,Castroville Medina Valley,86.64,185.97,136.08,208.65,530.7,Single-ply,SBD,M
Boys,89.81,8,Silverio Trejo,Pearsall,83.01,195.04,111.13,206.38,512.56,Single-ply,SBD,M
Boys,89.81,9,Estaban Morales,Port Lavaca Calhoun,86.64,213.19,113.4,165.56,492.15,Single-ply,SBD,M
Boys,89.81,10,Juan Perez #13,Lytle,84.14,176.9,102.06,192.78,471.74,Single-ply,SBD,M
Boys,89.81,11,David Nieto,Pearsall,82.83,192.78,106.59,158.76,458.13,Single-ply,SBD,M
Boys,89.81,12,Calvin Martinez,Carrizo Springs,84.37,167.83,102.06,183.7,453.59,Single-ply,SBD,M
Boys,89.81,13,Joshua Cuevas,Pearsall,88.36,163.29,77.11,167.83,408.23,Single-ply,SBD,M
Boys,89.81,14,Steven Nava,Beeville Jones,82.92,147.42,86.18,163.29,396.89,Single-ply,SBD,M
Boys,99.79,1,Carlos Carrillo,Lytle,93.71,240.4,140.61,229.06,610.08,Single-ply,SBD,M
Boys,99.79,2,Izzy Hay,Bandera,99.79,215.46,154.22,201.85,571.53,Single-ply,SBD,M
Boys,99.79,3,Fabian Huerta,Crystal City,93.8,219.99,113.4,222.26,555.65,Single-ply,SBD,M
Boys,99.79,4,Joey Mendez,San Antonio Memorial,97.16,233.6,111.13,208.65,553.38,Single-ply,SBD,M
Boys,99.79,5,Juan Landa,Castroville Medina Valley,98.97,210.92,129.27,197.31,537.51,Single-ply,SBD,M
Boys,99.79,6,Julian Valdolinos,Bandera,95.71,181.44,120.2,181.44,483.08,Single-ply,SBD,M
Boys,99.79,7,Adrian Valdez,Del Rio,99.79,183.7,106.59,192.78,483.08,Single-ply,SBD,M
Boys,99.79,8,Abraham Cantu,Pearsall,96.52,183.7,88.45,176.9,449.06,Single-ply,SBD,M
Boys,99.79,9,Christian Silvas,Crystal City,96.25,151.95,106.59,149.69,408.23,Single-ply,SBD,M
Boys,99.79,10,Zach Zavala,Crystal City,99.16,136.08,77.11,154.22,367.41,Single-ply,SBD,M
Boys,99.79,DQ,Antonio Ramirez,Crystal City,91.17,117.93,,,,Single-ply,SBD,M
Boys,109.77,1,Sal Marines,Somerset,105.23,294.84,142.88,294.84,732.55,Single-ply,SBD,M
Boys,109.77,2,Enrique Lugo,Jourdanton,108.59,283.5,183.7,265.35,732.55,Single-ply,SBD,M
Boys,109.77,3,Leo Perez,Devine,103.96,260.82,145.15,217.72,623.69,Single-ply,SBD,M
Boys,109.77,4,Mark Cerda,Somerset,108.86,233.6,124.74,229.06,587.4,Single-ply,SBD,M
Boys,109.77,5,Joe Cantu,Lytle,105.14,254.01,115.67,208.65,578.33,Single-ply,SBD,M
Boys,109.77,6,Darren Garcia,Crystal City,106.23,231.33,117.93,195.04,544.31,Single-ply,SBD,M
Boys,109.77,7,Joshua Macat,Lytle,109.41,210.92,111.13,199.58,521.63,Single-ply,SBD,M
Boys,109.77,8,Rd McCarrell,Jourdanton,107.64,197.31,117.93,181.44,496.68,Single-ply,SBD,M
Boys,109.77,9,Robert Steninle,Castroville Medina Valley,100.06,190.51,90.72,195.04,476.27,Single-ply,SBD,M
Boys,109.77,10,Austin Banks-Wilson,Castroville Medina Valley,107.5,170.1,111.13,192.78,474,Single-ply,SBD,M
Boys,109.77,11,Ruben Molina,Dilley,100.61,190.51,92.99,185.97,469.47,Single-ply,SBD,M
Boys,109.77,12,Martin Mendez,San Antonio Memorial,102.69,183.7,102.06,183.7,469.47,Single-ply,SBD,M
Boys,109.77,13,Alex Barrantes,Del Rio,101.97,165.56,104.33,183.7,453.59,Single-ply,SBD,M
Boys,109.77,14,Justin Lomas,Crystal City,101.33,244.94,,,244.94,Single-ply,S,M
Boys,109.77,DQ,Andrew Padilla,Poteet,105.14,204.12,92.99,,,Single-ply,SB,M
Boys,124.74,1,Eddie Rodriguez,San Antonio Memorial,116.75,274.42,183.7,233.6,691.73,Single-ply,SBD,M
Boys,124.74,2,Zach Monreal,Devine,119.84,258.55,158.76,249.48,666.78,Single-ply,SBD,M
Boys,124.74,3,Gabriel Garza,Somerset,120.2,281.23,163.29,208.65,653.17,Single-ply,SBD,M
Boys,124.74,4,Israel Aguero,Jourdanton,110.5,244.94,165.56,217.72,628.23,Single-ply,SBD,M
Boys,124.74,5,Bj Frieda,Somerset,112.04,272.16,133.81,192.78,598.74,Single-ply,SBD,M
Boys,124.74,6,Bryce Dowds,Bandera,115.85,217.72,142.88,235.87,596.47,Single-ply,SBD,M
Boys,124.74,7,JohnPaul Lugo,Jourdanton,119.48,226.8,122.47,204.12,553.38,Single-ply,SBD,M
Boys,124.74,8,Aaron Herrera,Del Rio,110.95,226.8,108.86,215.46,551.11,Single-ply,SBD,M
Boys,124.74,9,Michael Garza #1,Crystal City,120.38,231.33,124.74,181.44,537.51,Single-ply,SBD,M
Boys,124.74,10,Lucas Taulli,Bandera,114.12,204.12,113.4,208.65,526.17,Single-ply,SBD,M
Boys,124.74,11,Julian Herrnandez,Port Lavaca Calhoun,118.84,204.12,133.81,181.44,519.36,Single-ply,SBD,M
Boys,124.74,12,Adrian Puga,Beeville Jones,111.13,197.31,97.52,190.51,485.34,Single-ply,SBD,M
Boys,124.74,13,Michael Balderas,Poteet,117.66,208.65,86.18,183.7,478.54,Single-ply,SBD,M
Boys,124.74,14,Sergio Aleman,Carrizo Springs,119.57,176.9,99.79,185.97,462.66,Single-ply,SBD,M
Boys,124.74,15,Andres Garces,San Antonio Memorial,112.13,142.88,102.06,154.22,399.16,Single-ply,SBD,M
Boys,124.74,16,Juan Gomez,Crystal City,123.38,133.81,81.65,165.56,381.02,Single-ply,SBD,M
Boys,124.74,17,Gil Torres,San Antonio Memorial,110.13,136.08,83.91,131.54,351.53,Single-ply,SBD,M
Boys,124.74+,1,Charest Inman,Castroville Medina Valley,149.69,258.55,190.51,247.21,696.26,Single-ply,SBD,M
Boys,124.74+,2,Bryan Tuschtschula,Port Lavaca Calhoun,134.08,299.37,158.76,226.8,684.92,Single-ply,SBD,M
Boys,124.74+,3,Cameron Ellerbee,Beeville Jones,125.83,249.48,145.15,258.55,653.17,Single-ply,SBD,M
Boys,124.74+,4,Andy Valladolid,Somerset,137.44,288.03,145.15,213.19,646.37,Single-ply,SBD,M
Boys,124.74+,5,Ronnie Lucio,Poteet,127.46,244.94,117.93,204.12,566.99,Single-ply,SBD,M
Boys,124.74+,6,Garrett Newman,Castroville Medina Valley,147.24,222.26,136.08,208.65,566.99,Single-ply,SBD,M
Boys,124.74+,7,Arturo Romero,Port Lavaca Calhoun,127.73,235.87,120.2,208.65,564.72,Single-ply,SBD,M
Boys,124.74+,8,Julius Gonzales,Dilley,125.92,249.48,108.86,204.12,562.45,Single-ply,SBD,M
Boys,,NS,Joseph Garcia,Del Rio,,,,,,Single-ply,SBD,M
Boys,,NS,Logan Pennycook,Del Rio,,,,,,Single-ply,SBD,M
Boys,,NS,Juan Flores,Castroville Medina Valley,,,,,,Single-ply,SBD,M
Boys,,NS,Leroy Torres,Castroville Medina Valley,,,,,,Single-ply,SBD,M
Boys,,NS,Zeke Hinojosa,Pearsall,,,,,,Single-ply,SBD,M
Boys,,NS,Zackary Ornelas,Pearsall,,,,,,Single-ply,SBD,M
Boys,,NS,Bryce Sandoval,Poteet,,,,,,Single-ply,SBD,M
Boys,,NS,Matt Garcia,Poteet,,,,,,Single-ply,SBD,M
Boys,,NS,Adrian Contreras,Poteet,,,,,,Single-ply,SBD,M
